^E:\OPENGL_RTR\OPENGL\PERLIN_NOISE\DEBUG\PERLINNOISE.OBJ|E:\OPENGL_RTR\OPENGL\PERLIN_NOISE\SPHERE.LIB
E:\OPENGL_RTR\OPENGL\PERLIN_NOISE\DEBUG\PERLINNOISE.ILK
E:\OPENGL_RTR\OPENGL\PERLIN_NOISE\DEBUG\PERLINNOISE.EXE
E:\OPENGL_RTR\OPENGL\PERLIN_NOISE\DEBUG\PERLINNOISE.PDB
